How to enter the tidyverse of madness
…
---

## Answering questions

How many participants are in each study arm?

--

.ii[
We'll use the `participants` tibble.

```r
> participants
# A tibble: 400 × 4
   participant   age sex   arm
            
 1           1  23.6 F     arm3
 2           2  24.7 M     arm4
 3           3  25.4 F     arm2
 4           4  25.0 F     arm2
 5           5  23.4 M     arm4
 6           6  25.9 M     arm2
 7           7  26.5 M     arm4
 8           8  26.6 F     arm1
 9           9  25.3 F     arm2
10          10  25.3 F     arm3
# … with 390 more rows
```
…
.gap[ ]

--

.ii[
Recall `participants`.
```r
> participants
# A tibble: 400 × 4
   participant   age sex   arm
            
 1           1  23.6 F     arm3
 2           2  24.7 M     arm4
 3           3  25.4 F     arm2
 4           4  25.0 F     arm2
 5           5  23.4 M     arm4
 6           6  25.9 M     arm2
 7           7  26.5 M     arm4
 8           8  26.6 F     arm1
 9           9  25.3 F     arm2
10          10  25.3 F     arm3
# … with 390 more rows
```
…
